SubType,Spawn_Chance,Item_ID,Class,MaxCount,MinCount,LastItem
sc_elementalburstfrost,80,sc_elementalburstfrost,Enchanter,3,1
sc_didalasknack,80,sc_didalasknack,Enchanter,3,1
sc_fifthbarrier,80,sc_fifthbarrier,Enchanter,3,1
sc_daerirsmiracle,90,sc_daerirsmiracle,Enchanter,3,1
sc_almsiviintervention,90,sc_almsiviintervention,Enchanter,3,1
sc_divineintervention,80,sc_divineintervention,Enchanter,3,1
sc_ekashslocksplitter,80,sc_ekashslocksplitter,Enchanter,3,1